# MagicaVoxel @ Ephtracy

# material
mtllib man_walk-05.mtl
usemtl palette

# normals
vn -1 0 0
vn 1 0 0
vn 0 0 1
vn 0 0 -1
vn 0 -1 0
vn 0 1 0

# texcoords
vt 0.939453 0.5
vt 0.943359 0.5
vt 0.947266 0.5
vt 0.970703 0.5
vt 0.974609 0.5
vt 0.990234 0.5

# verts
v -3 4 1
v -3 4 -0
v -3 5 1
v -3 5 -0
v -3 6 1
v -3 6 -0
v -3 6 -1
v -3 7 -0
v -3 7 -1
v -3 8 -0
v -3 8 -1
v -3 9 1
v -3 9 -0
v -3 9 -1
v -3 9 -2
v -3 11 1
v -3 11 -2
v -2 0 -1
v -2 0 -2
v -2 1 -1
v -2 1 -2
v -2 3 1
v -2 3 -1
v -2 4 1
v -2 4 -0
v -2 4 -2
v -2 5 -0
v -2 6 1
v -2 6 -0
v -2 6 -1
v -2 7 1
v -2 7 -0
v -2 7 -1
v -2 7 -2
v -2 8 1
v -2 8 -0
v -2 8 -1
v -2 9 1
v -2 9 -0
v -2 9 -1
v -2 9 -2
v -2 10 2
v -2 10 1
v -2 11 2
v -2 11 1
v -2 11 -1
v -2 12 1
v -2 12 -1
v -1 8 -2
v -1 8 -3
v -1 9 2
v -1 9 1
v -1 10 2
v -1 10 1
v -1 11 -1
v -1 11 -2
v -1 11 -3
v -1 12 -1
v -1 12 -2
v 1 1 3
v 1 1 2
v 1 2 3
v 1 2 2
v 1 2 1
v 1 3 2
v 1 3 1
v -1 0 -1
v -1 0 -2
v -1 1 -1
v -1 1 -2
v -1 3 -1
v -1 3 -2
v 1 8 -2
v 1 8 -3
v 1 9 2
v 1 9 1
v 1 10 2
v 1 10 1
v 1 11 -1
v 1 11 -2
v 1 11 -3
v 1 12 -1
v 1 12 -2
v 2 1 3
v 2 1 2
v 2 2 3
v 2 2 2
v 2 2 1
v 2 3 2
v 2 3 1
v 2 3 -2
v 2 4 1
v 2 4 -1
v 2 4 -2
v 2 5 -1
v 2 6 -0
v 2 6 -1
v 2 6 -2
v 2 7 1
v 2 7 -0
v 2 7 -1
v 2 7 -2
v 2 8 1
v 2 8 -0
v 2 8 -1
v 2 9 1
v 2 9 -0
v 2 9 -1
v 2 9 -2
v 2 10 2
v 2 10 1
v 2 11 2
v 2 11 1
v 2 11 -1
v 2 12 1
v 2 12 -1
v 3 4 -1
v 3 4 -2
v 3 5 -1
v 3 5 -2
v 3 6 -0
v 3 6 -1
v 3 6 -2
v 3 7 -0
v 3 7 -1
v 3 8 -0
v 3 8 -1
v 3 9 1
v 3 9 -0
v 3 9 -1
v 3 9 -2
v 3 11 1
v 3 11 -2
v 1 1 3
v 1 2 3
v 2 1 3
v 2 2 3
v -2 10 2
v -2 11 2
v -1 9 2
v -1 10 2
v 1 2 2
v 1 3 2
v 1 9 2
v 1 10 2
v 2 2 2
v 2 3 2
v 2 10 2
v 2 11 2
v -3 4 1
v -3 5 1
v -3 6 1
v -3 9 1
v -3 11 1
v -2 3 1
v -2 4 1
v -2 5 1
v -2 6 1
v -2 7 1
v -2 8 1
v -2 9 1
v -2 10 1
v -2 11 1
v -2 12 1
v -1 8 1
v -1 9 1
v -1 10 1
v 1 3 1
v 1 8 1
v 1 9 1
v 1 10 1
v 2 3 1
v 2 4 1
v 2 7 1
v 2 8 1
v 2 9 1
v 2 10 1
v 2 11 1
v 2 12 1
v 3 9 1
v 3 11 1
v -3 6 -0
v -3 7 -0
v -3 8 -0
v -3 9 -0
v -2 6 -0
v -2 7 -0
v -2 8 -0
v -2 9 -0
v 2 6 -0
v 2 7 -0
v 2 8 -0
v 2 9 -0
v 3 6 -0
v 3 7 -0
v 3 8 -0
v 3 9 -0
v -2 0 -1
v -2 1 -1
v -2 3 -1
v -1 0 -1
v -1 1 -1
v -1 3 -1
v 2 4 -1
v 2 5 -1
v 2 6 -1
v 3 4 -1
v 3 5 -1
v 3 6 -1
v 1 1 2
v 1 2 2
v 2 1 2
v 2 2 2
v 1 2 1
v 1 3 1
v 2 2 1
v 2 3 1
v -3 4 -0
v -3 5 -0
v -3 6 -0
v -2 4 -0
v -2 5 -0
v -2 6 -0
v -3 6 -1
v -3 7 -1
v -3 8 -1
v -3 9 -1
v -2 6 -1
v -2 7 -1
v -2 8 -1
v -2 9 -1
v -2 11 -1
v -2 12 -1
v -1 11 -1
v -1 12 -1
v 1 11 -1
v 1 12 -1
v 2 6 -1
v 2 7 -1
v 2 8 -1
v 2 9 -1
v 2 11 -1
v 2 12 -1
v 3 6 -1
v 3 7 -1
v 3 8 -1
v 3 9 -1
v -3 9 -2
v -3 11 -2
v -2 0 -2
v -2 1 -2
v -2 4 -2
v -2 7 -2
v -2 9 -2
v -1 0 -2
v -1 1 -2
v -1 3 -2
v -1 8 -2
v -1 11 -2
v -1 12 -2
v 1 8 -2
v 1 11 -2
v 1 12 -2
v 2 3 -2
v 2 4 -2
v 2 5 -2
v 2 6 -2
v 2 7 -2
v 2 9 -2
v 3 4 -2
v 3 5 -2
v 3 6 -2
v 3 9 -2
v 3 11 -2
v -1 8 -3
v -1 11 -3
v 1 8 -3
v 1 11 -3
v -2 0 -1
v -1 0 -1
v -2 0 -2
v -1 0 -2
v 1 1 3
v 2 1 3
v 1 1 2
v 2 1 2
v 1 2 2
v 2 2 2
v 1 2 1
v 2 2 1
v -2 3 1
v 1 3 1
v 2 3 1
v -2 3 -1
v -1 3 -1
v -1 3 -2
v 2 3 -2
v -3 4 1
v -2 4 1
v -3 4 -0
v -2 4 -0
v 2 4 -1
v 3 4 -1
v 2 4 -2
v 3 4 -2
v -3 6 -0
v -2 6 -0
v 2 6 -0
v 3 6 -0
v -3 6 -1
v -2 6 -1
v 2 6 -1
v 3 6 -1
v -3 8 -0
v -2 8 -0
v 2 8 -0
v 3 8 -0
v -3 8 -1
v -2 8 -1
v 2 8 -1
v 3 8 -1
v -1 8 -2
v 1 8 -2
v -1 8 -3
v 1 8 -3
v -1 9 2
v 1 9 2
v -3 9 1
v -2 9 1
v -1 9 1
v 1 9 1
v 2 9 1
v 3 9 1
v -3 9 -0
v -2 9 -0
v 2 9 -0
v 3 9 -0
v -3 9 -1
v -2 9 -1
v 2 9 -1
v 3 9 -1
v -3 9 -2
v -2 9 -2
v 2 9 -2
v 3 9 -2
v -2 10 2
v -1 10 2
v 1 10 2
v 2 10 2
v -2 10 1
v -1 10 1
v 1 10 1
v 2 10 1
v 1 2 3
v 2 2 3
v 1 2 2
v 2 2 2
v 1 3 2
v 2 3 2
v 1 3 1
v 2 3 1
v -3 6 1
v -2 6 1
v -3 6 -0
v -2 6 -0
v 2 6 -1
v 3 6 -1
v 2 6 -2
v 3 6 -2
v -3 7 -0
v -2 7 -0
v 2 7 -0
v 3 7 -0
v -3 7 -1
v -2 7 -1
v 2 7 -1
v 3 7 -1
v -2 11 2
v 2 11 2
v -3 11 1
v -2 11 1
v 2 11 1
v 3 11 1
v -2 11 -1
v -1 11 -1
v 1 11 -1
v 2 11 -1
v -3 11 -2
v -1 11 -2
v 1 11 -2
v 3 11 -2
v -1 11 -3
v 1 11 -3
v -2 12 1
v 2 12 1
v -2 12 -1
v -1 12 -1
v 1 12 -1
v 2 12 -1
v -1 12 -2
v 1 12 -2

# faces
f 3/1/1 2/1/1 1/1/1
f 4/1/1 2/1/1 3/1/1
f 5/4/1 4/4/1 3/4/1
f 6/4/1 4/4/1 5/4/1
f 8/4/1 7/4/1 6/4/1
f 9/4/1 7/4/1 8/4/1
f 13/1/1 11/1/1 10/1/1
f 14/1/1 11/1/1 13/1/1
f 16/2/1 14/2/1 13/2/1
f 16/2/1 15/2/1 14/2/1
f 16/2/1 13/2/1 12/2/1
f 17/2/1 15/2/1 16/2/1
f 20/6/1 19/6/1 18/6/1
f 21/6/1 19/6/1 20/6/1
f 23/4/1 21/4/1 20/4/1
f 24/4/1 23/4/1 22/4/1
f 25/4/1 23/4/1 24/4/1
f 26/4/1 21/4/1 23/4/1
f 26/4/1 23/4/1 25/4/1
f 27/5/1 26/5/1 25/5/1
f 29/5/1 26/5/1 27/5/1
f 30/5/1 26/5/1 29/5/1
f 31/5/1 29/5/1 28/5/1
f 32/5/1 29/5/1 31/5/1
f 33/5/1 26/5/1 30/5/1
f 34/5/1 26/5/1 33/5/1
f 35/1/1 32/1/1 31/1/1
f 35/1/1 33/1/1 32/1/1
f 36/1/1 33/1/1 35/1/1
f 37/2/1 34/2/1 33/2/1
f 37/1/1 33/1/1 36/1/1
f 38/3/1 36/3/1 35/3/1
f 39/3/1 36/3/1 38/3/1
f 40/2/1 34/2/1 37/2/1
f 41/2/1 34/2/1 40/2/1
f 44/2/1 43/2/1 42/2/1
f 45/2/1 43/2/1 44/2/1
f 47/2/1 46/2/1 45/2/1
f 48/2/1 46/2/1 47/2/1
f 53/2/1 52/2/1 51/2/1
f 54/2/1 52/2/1 53/2/1
f 56/2/1 50/2/1 49/2/1
f 57/2/1 50/2/1 56/2/1
f 58/2/1 56/2/1 55/2/1
f 59/2/1 56/2/1 58/2/1
f 62/6/1 61/6/1 60/6/1
f 63/6/1 61/6/1 62/6/1
f 65/4/1 64/4/1 63/4/1
f 66/4/1 64/4/1 65/4/1
f 67/6/2 68/6/2 69/6/2
f 69/6/2 68/6/2 70/6/2
f 69/4/2 70/4/2 71/4/2
f 71/4/2 70/4/2 72/4/2
f 75/2/2 76/2/2 77/2/2
f 77/2/2 76/2/2 78/2/2
f 73/2/2 74/2/2 80/2/2
f 80/2/2 74/2/2 81/2/2
f 79/2/2 80/2/2 82/2/2
f 82/2/2 80/2/2 83/2/2
f 84/6/2 85/6/2 86/6/2
f 86/6/2 85/6/2 87/6/2
f 87/4/2 88/4/2 89/4/2
f 89/4/2 88/4/2 90/4/2
f 90/4/2 91/4/2 92/4/2
f 92/4/2 91/4/2 93/4/2
f 93/4/2 91/4/2 94/4/2
f 92/5/2 93/5/2 95/5/2
f 92/5/2 95/5/2 96/5/2
f 96/5/2 95/5/2 97/5/2
f 92/5/2 96/5/2 99/5/2
f 99/5/2 96/5/2 100/5/2
f 97/5/2 98/5/2 101/5/2
f 101/5/2 98/5/2 102/5/2
f 99/1/2 100/1/2 103/1/2
f 100/1/2 101/1/2 103/1/2
f 103/1/2 101/1/2 104/1/2
f 101/2/2 102/2/2 105/2/2
f 104/1/2 101/1/2 105/1/2
f 103/3/2 104/3/2 106/3/2
f 106/3/2 104/3/2 107/3/2
f 105/2/2 102/2/2 108/2/2
f 108/2/2 102/2/2 109/2/2
f 110/2/2 111/2/2 112/2/2
f 112/2/2 111/2/2 113/2/2
f 113/2/2 114/2/2 115/2/2
f 115/2/2 114/2/2 116/2/2
f 117/1/2 118/1/2 119/1/2
f 119/1/2 118/1/2 120/1/2
f 119/4/2 120/4/2 122/4/2
f 122/4/2 120/4/2 123/4/2
f 121/4/2 122/4/2 124/4/2
f 124/4/2 122/4/2 125/4/2
f 126/1/2 127/1/2 129/1/2
f 129/1/2 127/1/2 130/1/2
f 129/2/2 130/2/2 132/2/2
f 130/2/2 131/2/2 132/2/2
f 128/2/2 129/2/2 132/2/2
f 132/2/2 131/2/2 133/2/2
f 136/6/3 135/6/3 134/6/3
f 137/6/3 135/6/3 136/6/3
f 141/2/3 139/2/3 138/2/3
f 144/2/3 141/2/3 140/2/3
f 145/2/3 139/2/3 141/2/3
f 145/2/3 141/2/3 144/2/3
f 146/4/3 143/4/3 142/4/3
f 147/4/3 143/4/3 146/4/3
f 148/2/3 139/2/3 145/2/3
f 149/2/3 139/2/3 148/2/3
f 156/1/3 151/1/3 150/1/3
f 157/4/3 152/4/3 151/4/3
f 157/1/3 151/1/3 156/1/3
f 158/4/3 152/4/3 157/4/3
f 161/2/3 154/2/3 153/2/3
f 162/2/3 154/2/3 161/2/3
f 163/2/3 154/2/3 162/2/3
f 165/1/3 160/1/3 159/1/3
f 165/3/3 161/3/3 160/3/3
f 166/1/3 162/1/3 161/1/3
f 166/3/3 161/3/3 165/3/3
f 167/1/3 162/1/3 166/1/3
f 168/4/3 156/4/3 155/4/3
f 169/1/3 165/1/3 159/1/3
f 169/1/3 166/1/3 165/1/3
f 170/1/3 166/1/3 169/1/3
f 172/4/3 156/4/3 168/4/3
f 173/5/3 157/5/3 156/5/3
f 173/4/3 156/4/3 172/4/3
f 173/5/3 158/5/3 157/5/3
f 173/5/3 159/5/3 158/5/3
f 174/1/3 169/1/3 159/1/3
f 174/5/3 159/5/3 173/5/3
f 175/3/3 170/3/3 169/3/3
f 175/1/3 169/1/3 174/1/3
f 176/1/3 171/1/3 170/1/3
f 176/3/3 170/3/3 175/3/3
f 177/1/3 171/1/3 176/1/3
f 178/2/3 164/2/3 163/2/3
f 179/2/3 164/2/3 178/2/3
f 180/2/3 177/2/3 176/2/3
f 180/2/3 178/2/3 177/2/3
f 181/2/3 178/2/3 180/2/3
f 186/4/3 183/4/3 182/4/3
f 187/4/3 183/4/3 186/4/3
f 188/1/3 185/1/3 184/1/3
f 189/1/3 185/1/3 188/1/3
f 194/4/3 191/4/3 190/4/3
f 195/4/3 191/4/3 194/4/3
f 196/1/3 193/1/3 192/1/3
f 197/1/3 193/1/3 196/1/3
f 201/6/3 199/6/3 198/6/3
f 202/4/3 200/4/3 199/4/3
f 202/6/3 199/6/3 201/6/3
f 203/4/3 200/4/3 202/4/3
f 207/1/3 205/1/3 204/1/3
f 208/4/3 206/4/3 205/4/3
f 208/1/3 205/1/3 207/1/3
f 209/4/3 206/4/3 208/4/3
f 210/6/4 211/6/4 212/6/4
f 212/6/4 211/6/4 213/6/4
f 214/4/4 215/4/4 216/4/4
f 216/4/4 215/4/4 217/4/4
f 218/1/4 219/1/4 221/1/4
f 219/4/4 220/4/4 222/4/4
f 221/1/4 219/1/4 222/1/4
f 222/4/4 220/4/4 223/4/4
f 224/4/4 225/4/4 228/4/4
f 228/4/4 225/4/4 229/4/4
f 226/1/4 227/1/4 230/1/4
f 230/1/4 227/1/4 231/1/4
f 232/2/4 233/2/4 234/2/4
f 234/2/4 233/2/4 235/2/4
f 236/2/4 237/2/4 242/2/4
f 242/2/4 237/2/4 243/2/4
f 238/4/4 239/4/4 244/4/4
f 244/4/4 239/4/4 245/4/4
f 240/1/4 241/1/4 246/1/4
f 246/1/4 241/1/4 247/1/4
f 248/2/4 249/2/4 254/2/4
f 250/6/4 251/6/4 255/6/4
f 251/4/4 252/4/4 256/4/4
f 255/6/4 251/6/4 256/6/4
f 256/4/4 252/4/4 257/4/4
f 253/2/4 254/2/4 258/2/4
f 254/2/4 249/2/4 259/2/4
f 258/2/4 254/2/4 259/2/4
f 253/2/4 258/2/4 261/2/4
f 259/2/4 260/2/4 262/2/4
f 262/2/4 260/2/4 263/2/4
f 257/4/4 252/4/4 264/4/4
f 252/5/4 253/5/4 265/5/4
f 264/4/4 252/4/4 265/4/4
f 265/5/4 253/5/4 266/5/4
f 266/5/4 253/5/4 267/5/4
f 253/2/4 261/2/4 268/2/4
f 267/5/4 253/5/4 268/5/4
f 261/2/4 262/2/4 268/2/4
f 268/2/4 262/2/4 269/2/4
f 265/1/4 266/1/4 270/1/4
f 266/4/4 267/4/4 271/4/4
f 270/1/4 266/1/4 271/1/4
f 271/4/4 267/4/4 272/4/4
f 269/2/4 262/2/4 273/2/4
f 273/2/4 262/2/4 274/2/4
f 275/2/4 276/2/4 277/2/4
f 277/2/4 276/2/4 278/2/4
f 281/6/5 280/6/5 279/6/5
f 282/6/5 280/6/5 281/6/5
f 285/6/5 284/6/5 283/6/5
f 286/6/5 284/6/5 285/6/5
f 289/4/5 288/4/5 287/4/5
f 290/4/5 288/4/5 289/4/5
f 294/4/5 292/4/5 291/4/5
f 294/4/5 293/4/5 292/4/5
f 295/4/5 293/4/5 294/4/5
f 296/4/5 293/4/5 295/4/5
f 297/4/5 293/4/5 296/4/5
f 300/1/5 299/1/5 298/1/5
f 301/1/5 299/1/5 300/1/5
f 304/1/5 303/1/5 302/1/5
f 305/1/5 303/1/5 304/1/5
f 310/4/5 307/4/5 306/4/5
f 311/4/5 307/4/5 310/4/5
f 312/4/5 309/4/5 308/4/5
f 313/4/5 309/4/5 312/4/5
f 318/1/5 315/1/5 314/1/5
f 319/1/5 315/1/5 318/1/5
f 320/1/5 317/1/5 316/1/5
f 321/1/5 317/1/5 320/1/5
f 324/2/5 323/2/5 322/2/5
f 325/2/5 323/2/5 324/2/5
f 330/2/5 327/2/5 326/2/5
f 331/2/5 327/2/5 330/2/5
f 334/2/5 329/2/5 328/2/5
f 335/2/5 329/2/5 334/2/5
f 336/2/5 333/2/5 332/2/5
f 337/2/5 333/2/5 336/2/5
f 342/2/5 339/2/5 338/2/5
f 343/2/5 339/2/5 342/2/5
f 344/2/5 341/2/5 340/2/5
f 345/2/5 341/2/5 344/2/5
f 350/2/5 347/2/5 346/2/5
f 351/2/5 347/2/5 350/2/5
f 352/2/5 349/2/5 348/2/5
f 353/2/5 349/2/5 352/2/5
f 354/6/6 355/6/6 356/6/6
f 356/6/6 355/6/6 357/6/6
f 358/4/6 359/4/6 360/4/6
f 360/4/6 359/4/6 361/4/6
f 362/4/6 363/4/6 364/4/6
f 364/4/6 363/4/6 365/4/6
f 366/4/6 367/4/6 368/4/6
f 368/4/6 367/4/6 369/4/6
f 370/4/6 371/4/6 374/4/6
f 374/4/6 371/4/6 375/4/6
f 372/4/6 373/4/6 376/4/6
f 376/4/6 373/4/6 377/4/6
f 378/2/6 379/2/6 381/2/6
f 381/2/6 379/2/6 382/2/6
f 380/2/6 381/2/6 384/2/6
f 382/2/6 383/2/6 387/2/6
f 384/2/6 385/2/6 388/2/6
f 380/2/6 384/2/6 388/2/6
f 388/2/6 385/2/6 389/2/6
f 386/2/6 387/2/6 390/2/6
f 387/2/6 383/2/6 391/2/6
f 390/2/6 387/2/6 391/2/6
f 389/2/6 390/2/6 392/2/6
f 392/2/6 390/2/6 393/2/6
f 394/2/6 395/2/6 396/2/6
f 396/2/6 395/2/6 397/2/6
f 397/2/6 395/2/6 398/2/6
f 398/2/6 395/2/6 399/2/6
f 397/2/6 398/2/6 400/2/6
f 400/2/6 398/2/6 401/2/6
