# MagicaVoxel @ Ephtracy

# material
mtllib man_walk-04.mtl
usemtl palette

# normals
vn -1 0 0
vn 1 0 0
vn 0 0 1
vn 0 0 -1
vn 0 -1 0
vn 0 1 0

# texcoords
vt 0.939453 0.5
vt 0.943359 0.5
vt 0.947266 0.5
vt 0.970703 0.5
vt 0.974609 0.5
vt 0.990234 0.5

# verts
v -3 3 0.5
v -3 3 -0.5
v -3 4 0.5
v -3 4 -0.5
v -3 6 0.5
v -3 6 -0.5
v -3 7 0.5
v -3 7 -0.5
v -3 8 1.5
v -3 8 0.5
v -3 8 -0.5
v -3 8 -1.5
v -3 10 1.5
v -3 10 -1.5
v -2 0 0.5
v -2 0 -0.5
v -2 1 0.5
v -2 1 -0.5
v -2 2 1.5
v -2 2 0.5
v -2 2 -0.5
v -2 2 -1.5
v -2 3 1.5
v -2 3 0.5
v -2 3 -0.5
v -2 3 -1.5
v -2 4 0.5
v -2 4 -0.5
v -2 6 1.5
v -2 6 0.5
v -2 6 -0.5
v -2 6 -1.5
v -2 7 1.5
v -2 7 0.5
v -2 7 -0.5
v -2 8 1.5
v -2 8 0.5
v -2 8 -0.5
v -2 8 -1.5
v -2 9 2.5
v -2 9 1.5
v -2 10 2.5
v -2 10 1.5
v -2 10 -0.5
v -2 11 1.5
v -2 11 -0.5
v -1 7 -1.5
v -1 7 -2.5
v -1 8 2.5
v -1 8 1.5
v -1 9 2.5
v -1 9 1.5
v -1 10 -0.5
v -1 10 -1.5
v -1 10 -2.5
v -1 11 -0.5
v -1 11 -1.5
v 1 1 0.5
v 1 1 -0.5
v 1 1 -1.5
v 1 2 0.5
v 1 2 -0.5
v 1 2 -1.5
v -1 0 0.5
v -1 0 -0.5
v -1 1 0.5
v -1 1 -0.5
v -1 2 0.5
v -1 2 -0.5
v 1 7 -1.5
v 1 7 -2.5
v 1 8 2.5
v 1 8 1.5
v 1 9 2.5
v 1 9 1.5
v 1 10 -0.5
v 1 10 -1.5
v 1 10 -2.5
v 1 11 -0.5
v 1 11 -1.5
v 2 1 0.5
v 2 1 -0.5
v 2 1 -1.5
v 2 2 1.5
v 2 2 0.5
v 2 2 -0.5
v 2 2 -1.5
v 2 3 1.5
v 2 3 0.5
v 2 3 -0.5
v 2 3 -1.5
v 2 4 0.5
v 2 4 -0.5
v 2 6 1.5
v 2 6 0.5
v 2 6 -0.5
v 2 6 -1.5
v 2 7 1.5
v 2 7 0.5
v 2 7 -0.5
v 2 8 1.5
v 2 8 0.5
v 2 8 -0.5
v 2 8 -1.5
v 2 9 2.5
v 2 9 1.5
v 2 10 2.5
v 2 10 1.5
v 2 10 -0.5
v 2 11 1.5
v 2 11 -0.5
v 3 3 0.5
v 3 3 -0.5
v 3 4 0.5
v 3 4 -0.5
v 3 6 0.5
v 3 6 -0.5
v 3 7 0.5
v 3 7 -0.5
v 3 8 1.5
v 3 8 0.5
v 3 8 -0.5
v 3 8 -1.5
v 3 10 1.5
v 3 10 -1.5
v -2 9 2.5
v -2 10 2.5
v -1 8 2.5
v -1 9 2.5
v 1 8 2.5
v 1 9 2.5
v 2 9 2.5
v 2 10 2.5
v -3 8 1.5
v -3 10 1.5
v -2 2 1.5
v -2 3 1.5
v -2 6 1.5
v -2 7 1.5
v -2 8 1.5
v -2 9 1.5
v -2 10 1.5
v -2 11 1.5
v -1 7 1.5
v -1 8 1.5
v -1 9 1.5
v 1 7 1.5
v 1 8 1.5
v 1 9 1.5
v 2 2 1.5
v 2 3 1.5
v 2 6 1.5
v 2 7 1.5
v 2 8 1.5
v 2 9 1.5
v 2 10 1.5
v 2 11 1.5
v 3 8 1.5
v 3 10 1.5
v -3 3 0.5
v -3 4 0.5
v -3 6 0.5
v -3 7 0.5
v -3 8 0.5
v -2 0 0.5
v -2 1 0.5
v -2 2 0.5
v -2 3 0.5
v -2 4 0.5
v -2 6 0.5
v -2 7 0.5
v -2 8 0.5
v -1 0 0.5
v -1 1 0.5
v -1 2 0.5
v 1 1 0.5
v 1 2 0.5
v 2 1 0.5
v 2 2 0.5
v 2 3 0.5
v 2 4 0.5
v 2 6 0.5
v 2 7 0.5
v 2 8 0.5
v 3 3 0.5
v 3 4 0.5
v 3 6 0.5
v 3 7 0.5
v 3 8 0.5
v -3 3 -0.5
v -3 4 -0.5
v -3 6 -0.5
v -3 7 -0.5
v -3 8 -0.5
v -2 0 -0.5
v -2 1 -0.5
v -2 2 -0.5
v -2 3 -0.5
v -2 4 -0.5
v -2 6 -0.5
v -2 7 -0.5
v -2 8 -0.5
v -2 10 -0.5
v -2 11 -0.5
v -1 0 -0.5
v -1 1 -0.5
v -1 2 -0.5
v -1 10 -0.5
v -1 11 -0.5
v 1 10 -0.5
v 1 11 -0.5
v 2 3 -0.5
v 2 4 -0.5
v 2 6 -0.5
v 2 7 -0.5
v 2 8 -0.5
v 2 10 -0.5
v 2 11 -0.5
v 3 3 -0.5
v 3 4 -0.5
v 3 6 -0.5
v 3 7 -0.5
v 3 8 -0.5
v -3 8 -1.5
v -3 10 -1.5
v -2 2 -1.5
v -2 3 -1.5
v -2 6 -1.5
v -2 8 -1.5
v -1 7 -1.5
v -1 10 -1.5
v -1 11 -1.5
v 1 1 -1.5
v 1 2 -1.5
v 1 7 -1.5
v 1 10 -1.5
v 1 11 -1.5
v 2 1 -1.5
v 2 2 -1.5
v 2 3 -1.5
v 2 6 -1.5
v 2 8 -1.5
v 3 8 -1.5
v 3 10 -1.5
v -1 7 -2.5
v -1 10 -2.5
v 1 7 -2.5
v 1 10 -2.5
v -2 0 0.5
v -1 0 0.5
v -2 0 -0.5
v -1 0 -0.5
v 1 1 0.5
v 2 1 0.5
v 1 1 -0.5
v 2 1 -0.5
v 1 1 -1.5
v 2 1 -1.5
v -2 2 1.5
v 2 2 1.5
v -2 2 0.5
v -1 2 0.5
v 1 2 0.5
v 2 2 0.5
v -2 2 -0.5
v -1 2 -0.5
v 1 2 -0.5
v -2 2 -1.5
v 1 2 -1.5
v -3 3 0.5
v -2 3 0.5
v 2 3 0.5
v 3 3 0.5
v -3 3 -0.5
v -2 3 -0.5
v 2 3 -0.5
v 3 3 -0.5
v -3 7 0.5
v -2 7 0.5
v 2 7 0.5
v 3 7 0.5
v -3 7 -0.5
v -2 7 -0.5
v 2 7 -0.5
v 3 7 -0.5
v -1 7 -1.5
v 1 7 -1.5
v -1 7 -2.5
v 1 7 -2.5
v -1 8 2.5
v 1 8 2.5
v -3 8 1.5
v -2 8 1.5
v -1 8 1.5
v 1 8 1.5
v 2 8 1.5
v 3 8 1.5
v -3 8 0.5
v -2 8 0.5
v 2 8 0.5
v 3 8 0.5
v -3 8 -0.5
v -2 8 -0.5
v 2 8 -0.5
v 3 8 -0.5
v -3 8 -1.5
v -2 8 -1.5
v 2 8 -1.5
v 3 8 -1.5
v -2 9 2.5
v -1 9 2.5
v 1 9 2.5
v 2 9 2.5
v -2 9 1.5
v -1 9 1.5
v 1 9 1.5
v 2 9 1.5
v -3 6 0.5
v -2 6 0.5
v 2 6 0.5
v 3 6 0.5
v -3 6 -0.5
v -2 6 -0.5
v 2 6 -0.5
v 3 6 -0.5
v -2 10 2.5
v 2 10 2.5
v -3 10 1.5
v -2 10 1.5
v 2 10 1.5
v 3 10 1.5
v -2 10 -0.5
v -1 10 -0.5
v 1 10 -0.5
v 2 10 -0.5
v -3 10 -1.5
v -1 10 -1.5
v 1 10 -1.5
v 3 10 -1.5
v -1 10 -2.5
v 1 10 -2.5
v -2 11 1.5
v 2 11 1.5
v -2 11 -0.5
v -1 11 -0.5
v 1 11 -0.5
v 2 11 -0.5
v -1 11 -1.5
v 1 11 -1.5

# faces
f 3/1/1 2/1/1 1/1/1
f 4/1/1 2/1/1 3/1/1
f 5/4/1 4/4/1 3/4/1
f 6/4/1 4/4/1 5/4/1
f 10/1/1 8/1/1 7/1/1
f 11/1/1 8/1/1 10/1/1
f 13/2/1 11/2/1 10/2/1
f 13/2/1 12/2/1 11/2/1
f 13/2/1 10/2/1 9/2/1
f 14/2/1 12/2/1 13/2/1
f 17/6/1 16/6/1 15/6/1
f 18/6/1 16/6/1 17/6/1
f 20/4/1 18/4/1 17/4/1
f 21/4/1 18/4/1 20/4/1
f 23/4/1 21/4/1 20/4/1
f 23/4/1 22/4/1 21/4/1
f 23/4/1 20/4/1 19/4/1
f 24/4/1 22/4/1 23/4/1
f 25/4/1 22/4/1 24/4/1
f 26/4/1 22/4/1 25/4/1
f 27/5/1 24/5/1 23/5/1
f 28/5/1 26/5/1 25/5/1
f 29/5/1 27/5/1 23/5/1
f 30/5/1 27/5/1 29/5/1
f 31/5/1 26/5/1 28/5/1
f 32/5/1 26/5/1 31/5/1
f 33/1/1 30/1/1 29/1/1
f 33/1/1 31/1/1 30/1/1
f 34/1/1 31/1/1 33/1/1
f 35/2/1 32/2/1 31/2/1
f 35/1/1 31/1/1 34/1/1
f 36/3/1 34/3/1 33/3/1
f 37/3/1 34/3/1 36/3/1
f 38/2/1 32/2/1 35/2/1
f 39/2/1 32/2/1 38/2/1
f 42/2/1 41/2/1 40/2/1
f 43/2/1 41/2/1 42/2/1
f 45/2/1 44/2/1 43/2/1
f 46/2/1 44/2/1 45/2/1
f 51/2/1 50/2/1 49/2/1
f 52/2/1 50/2/1 51/2/1
f 54/2/1 48/2/1 47/2/1
f 55/2/1 48/2/1 54/2/1
f 56/2/1 54/2/1 53/2/1
f 57/2/1 54/2/1 56/2/1
f 61/4/1 59/4/1 58/4/1
f 62/6/1 60/6/1 59/6/1
f 62/4/1 59/4/1 61/4/1
f 63/6/1 60/6/1 62/6/1
f 64/6/2 65/6/2 66/6/2
f 66/6/2 65/6/2 67/6/2
f 66/4/2 67/4/2 68/4/2
f 68/4/2 67/4/2 69/4/2
f 72/2/2 73/2/2 74/2/2
f 74/2/2 73/2/2 75/2/2
f 70/2/2 71/2/2 77/2/2
f 77/2/2 71/2/2 78/2/2
f 76/2/2 77/2/2 79/2/2
f 79/2/2 77/2/2 80/2/2
f 81/4/2 82/4/2 85/4/2
f 82/6/2 83/6/2 86/6/2
f 85/4/2 82/4/2 86/4/2
f 86/6/2 83/6/2 87/6/2
f 84/4/2 85/4/2 88/4/2
f 85/4/2 86/4/2 88/4/2
f 86/4/2 87/4/2 88/4/2
f 88/4/2 87/4/2 89/4/2
f 89/4/2 87/4/2 90/4/2
f 90/4/2 87/4/2 91/4/2
f 88/5/2 89/5/2 92/5/2
f 90/5/2 91/5/2 93/5/2
f 88/5/2 92/5/2 94/5/2
f 94/5/2 92/5/2 95/5/2
f 93/5/2 91/5/2 96/5/2
f 96/5/2 91/5/2 97/5/2
f 94/1/2 95/1/2 98/1/2
f 95/1/2 96/1/2 98/1/2
f 98/1/2 96/1/2 99/1/2
f 96/2/2 97/2/2 100/2/2
f 99/1/2 96/1/2 100/1/2
f 98/3/2 99/3/2 101/3/2
f 101/3/2 99/3/2 102/3/2
f 100/2/2 97/2/2 103/2/2
f 103/2/2 97/2/2 104/2/2
f 105/2/2 106/2/2 107/2/2
f 107/2/2 106/2/2 108/2/2
f 108/2/2 109/2/2 110/2/2
f 110/2/2 109/2/2 111/2/2
f 112/1/2 113/1/2 114/1/2
f 114/1/2 113/1/2 115/1/2
f 114/4/2 115/4/2 116/4/2
f 116/4/2 115/4/2 117/4/2
f 118/1/2 119/1/2 121/1/2
f 121/1/2 119/1/2 122/1/2
f 121/2/2 122/2/2 124/2/2
f 122/2/2 123/2/2 124/2/2
f 120/2/2 121/2/2 124/2/2
f 124/2/2 123/2/2 125/2/2
f 129/2/3 127/2/3 126/2/3
f 130/2/3 129/2/3 128/2/3
f 131/2/3 127/2/3 129/2/3
f 131/2/3 129/2/3 130/2/3
f 132/2/3 127/2/3 131/2/3
f 133/2/3 127/2/3 132/2/3
f 140/2/3 135/2/3 134/2/3
f 141/2/3 135/2/3 140/2/3
f 142/2/3 135/2/3 141/2/3
f 144/1/3 139/1/3 138/1/3
f 144/3/3 140/3/3 139/3/3
f 145/1/3 141/1/3 140/1/3
f 145/3/3 140/3/3 144/3/3
f 146/1/3 141/1/3 145/1/3
f 147/1/3 144/1/3 138/1/3
f 147/1/3 145/1/3 144/1/3
f 148/1/3 145/1/3 147/1/3
f 150/4/3 137/4/3 136/4/3
f 151/5/3 138/5/3 137/5/3
f 151/4/3 137/4/3 150/4/3
f 152/1/3 147/1/3 138/1/3
f 152/5/3 138/5/3 151/5/3
f 153/3/3 148/3/3 147/3/3
f 153/1/3 147/1/3 152/1/3
f 154/1/3 149/1/3 148/1/3
f 154/3/3 148/3/3 153/3/3
f 155/1/3 149/1/3 154/1/3
f 156/2/3 143/2/3 142/2/3
f 157/2/3 143/2/3 156/2/3
f 158/2/3 155/2/3 154/2/3
f 158/2/3 156/2/3 155/2/3
f 159/2/3 156/2/3 158/2/3
f 168/1/3 161/1/3 160/1/3
f 169/4/3 162/4/3 161/4/3
f 169/1/3 161/1/3 168/1/3
f 170/4/3 162/4/3 169/4/3
f 171/1/3 164/1/3 163/1/3
f 172/1/3 164/1/3 171/1/3
f 173/6/3 166/6/3 165/6/3
f 174/4/3 167/4/3 166/4/3
f 174/6/3 166/6/3 173/6/3
f 175/4/3 167/4/3 174/4/3
f 178/4/3 177/4/3 176/4/3
f 179/4/3 177/4/3 178/4/3
f 185/1/3 181/1/3 180/1/3
f 186/4/3 182/4/3 181/4/3
f 186/1/3 181/1/3 185/1/3
f 187/4/3 182/4/3 186/4/3
f 188/1/3 184/1/3 183/1/3
f 189/1/3 184/1/3 188/1/3
f 190/1/4 191/1/4 198/1/4
f 191/4/4 192/4/4 199/4/4
f 198/1/4 191/1/4 199/1/4
f 199/4/4 192/4/4 200/4/4
f 193/1/4 194/1/4 201/1/4
f 201/1/4 194/1/4 202/1/4
f 195/6/4 196/6/4 205/6/4
f 196/4/4 197/4/4 206/4/4
f 205/6/4 196/6/4 206/6/4
f 206/4/4 197/4/4 207/4/4
f 203/2/4 204/2/4 208/2/4
f 208/2/4 204/2/4 209/2/4
f 210/2/4 211/2/4 217/2/4
f 217/2/4 211/2/4 218/2/4
f 212/1/4 213/1/4 219/1/4
f 213/4/4 214/4/4 220/4/4
f 219/1/4 213/1/4 220/1/4
f 220/4/4 214/4/4 221/4/4
f 215/1/4 216/1/4 222/1/4
f 222/1/4 216/1/4 223/1/4
f 224/2/4 225/2/4 229/2/4
f 228/2/4 229/2/4 230/2/4
f 229/2/4 225/2/4 231/2/4
f 230/2/4 229/2/4 231/2/4
f 226/4/4 227/4/4 234/4/4
f 228/2/4 230/2/4 235/2/4
f 231/2/4 232/2/4 236/2/4
f 236/2/4 232/2/4 237/2/4
f 233/6/4 234/6/4 238/6/4
f 234/4/4 227/4/4 239/4/4
f 238/6/4 234/6/4 239/6/4
f 227/5/4 228/5/4 240/5/4
f 239/4/4 227/4/4 240/4/4
f 228/2/4 235/2/4 241/2/4
f 240/5/4 228/5/4 241/5/4
f 235/2/4 236/2/4 241/2/4
f 241/2/4 236/2/4 242/2/4
f 242/2/4 236/2/4 243/2/4
f 243/2/4 236/2/4 244/2/4
f 245/2/4 246/2/4 247/2/4
f 247/2/4 246/2/4 248/2/4
f 251/6/5 250/6/5 249/6/5
f 252/6/5 250/6/5 251/6/5
f 255/4/5 254/4/5 253/4/5
f 256/4/5 254/4/5 255/4/5
f 257/6/5 256/6/5 255/6/5
f 258/6/5 256/6/5 257/6/5
f 261/4/5 260/4/5 259/4/5
f 262/4/5 260/4/5 261/4/5
f 263/4/5 260/4/5 262/4/5
f 264/4/5 260/4/5 263/4/5
f 266/4/5 263/4/5 262/4/5
f 267/4/5 263/4/5 266/4/5
f 268/4/5 266/4/5 265/4/5
f 268/4/5 267/4/5 266/4/5
f 269/4/5 267/4/5 268/4/5
f 274/1/5 271/1/5 270/1/5
f 275/1/5 271/1/5 274/1/5
f 276/1/5 273/1/5 272/1/5
f 277/1/5 273/1/5 276/1/5
f 282/1/5 279/1/5 278/1/5
f 283/1/5 279/1/5 282/1/5
f 284/1/5 281/1/5 280/1/5
f 285/1/5 281/1/5 284/1/5
f 288/2/5 287/2/5 286/2/5
f 289/2/5 287/2/5 288/2/5
f 294/2/5 291/2/5 290/2/5
f 295/2/5 291/2/5 294/2/5
f 298/2/5 293/2/5 292/2/5
f 299/2/5 293/2/5 298/2/5
f 300/2/5 297/2/5 296/2/5
f 301/2/5 297/2/5 300/2/5
f 306/2/5 303/2/5 302/2/5
f 307/2/5 303/2/5 306/2/5
f 308/2/5 305/2/5 304/2/5
f 309/2/5 305/2/5 308/2/5
f 314/2/5 311/2/5 310/2/5
f 315/2/5 311/2/5 314/2/5
f 316/2/5 313/2/5 312/2/5
f 317/2/5 313/2/5 316/2/5
f 318/4/6 319/4/6 322/4/6
f 322/4/6 319/4/6 323/4/6
f 320/4/6 321/4/6 324/4/6
f 324/4/6 321/4/6 325/4/6
f 326/2/6 327/2/6 329/2/6
f 329/2/6 327/2/6 330/2/6
f 328/2/6 329/2/6 332/2/6
f 330/2/6 331/2/6 335/2/6
f 332/2/6 333/2/6 336/2/6
f 328/2/6 332/2/6 336/2/6
f 336/2/6 333/2/6 337/2/6
f 334/2/6 335/2/6 338/2/6
f 335/2/6 331/2/6 339/2/6
f 338/2/6 335/2/6 339/2/6
f 337/2/6 338/2/6 340/2/6
f 340/2/6 338/2/6 341/2/6
f 342/2/6 343/2/6 344/2/6
f 344/2/6 343/2/6 345/2/6
f 345/2/6 343/2/6 346/2/6
f 346/2/6 343/2/6 347/2/6
f 345/2/6 346/2/6 348/2/6
f 348/2/6 346/2/6 349/2/6
